{
  "useRightMouse": true,
  "useMiddleMouse": true,
  "moveThresholdHor": 50,
  "moveThresholdVert": 50,
  "autoHide": false,
  "autoHideRibbon": false,
  "autoMinRootWidth": true,
  "minRootWidth": 300,
  "dblClickDelay": 450,
  "togglePin": true
}