{
  "collapse-filter": false,
  "search": "",
  "showTags": true,
  "showAttachments": false,
  "hideUnresolved": true,
  "showOrphans": true,
  "collapse-color-groups": false,
  "colorGroups": [],
  "collapse-display": false,
  "showArrow": true,
  "textFadeMultiplier": -3,
  "nodeSizeMultiplier": 1.05822222222222,
  "lineSizeMultiplier": 1.92933333333333,
  "collapse-forces": false,
  "centerStrength": 0,
  "repelStrength": 4.51282051282051,
  "linkStrength": 0.779380341880342,
  "linkDistance": 250,
  "scale": 0.19320493609327716,
  "close": true
}