{
  "connectorOption": "Single",
  "connector": "-",
  "multipleConnectors": [
    "_",
    "_",
    "_",
    "_"
  ],
  "multipleConnectorsEnabled": [
    true,
    false,
    true,
    true
  ],
  "enableImage": true,
  "imageExtensions": [
    true,
    true,
    true,
    true,
    true,
    true,
    true
  ],
  "image": "G",
  "enableAudio": true,
  "audioExtensions": [
    true,
    true,
    true,
    true,
    true,
    true
  ],
  "audio": "audio",
  "enableVideo": true,
  "videoExtensions": [
    true,
    true,
    true,
    true,
    true
  ],
  "video": "video",
  "enablePdf": true,
  "pdfExtensions": [
    true
  ],
  "pdf": "pdf",
  "oneInMany": "Default",
  "enableAuto": true,
  "enableTime": false,
  "enablePathHash": false,
  "enableExcludeFileName": false,
  "excludedFolders": [],
  "subfolders": [
    "",
    "",
    "",
    ""
  ],
  "exportCurrentRiboon": false,
  "exportUnusedRiboon": false,
  "exportCurrentDeletion": false,
  "exportUnusedDeletion": false,
  "copyPath": false,
  "copyPathMode": "Relative",
  "usingLog": false,
  "logPath": "/"
}