{
  "folders": [
    {
      "name": "",
      "relativePath": "/"
    },
    {
      "name": "BMO",
      "relativePath": "BMO"
    },
    {
      "name": "Books",
      "relativePath": "Books"
    },
    {
      "name": "Obsidian",
      "relativePath": "Obsidian"
    },
    {
      "name": "attach",
      "relativePath": "attach"
    },
    {
      "name": "working",
      "relativePath": "working"
    },
    {
      "name": "zob_config",
      "relativePath": "zob_config"
    },
    {
      "name": "兵车行",
      "relativePath": "兵车行"
    },
    {
      "name": "写作方法",
      "relativePath": "写作方法"
    },
    {
      "name": "日记",
      "relativePath": "日记"
    },
    {
      "name": "Profiles",
      "relativePath": "BMO/Profiles"
    },
    {
      "name": "主页",
      "relativePath": "Obsidian/主页"
    },
    {
      "name": "代码库",
      "relativePath": "Obsidian/代码库"
    },
    {
      "name": "基本使用",
      "relativePath": "Obsidian/基本使用"
    },
    {
      "name": "工作",
      "relativePath": "Obsidian/工作"
    },
    {
      "name": "脚本",
      "relativePath": "Obsidian/脚本"
    },
    {
      "name": "6-整理哲学-APP化一切",
      "relativePath": "attach/6-整理哲学-APP化一切"
    },
    {
      "name": "Merged - 反向刻意锻炼",
      "relativePath": "attach/Merged - 反向刻意锻炼"
    },
    {
      "name": "时间整理",
      "relativePath": "attach/时间整理"
    },
    {
      "name": "小世界",
      "relativePath": "working/小世界"
    },
    {
      "name": "预制",
      "relativePath": "working/预制"
    },
    {
      "name": "banners",
      "relativePath": "zob_config/banners"
    },
    {
      "name": "memo",
      "relativePath": "zob_config/memo"
    },
    {
      "name": "template",
      "relativePath": "zob_config/template"
    },
    {
      "name": "zob_attach",
      "relativePath": "zob_config/zob_attach"
    },
    {
      "name": "AT-模板",
      "relativePath": "写作方法/AT-模板"
    },
    {
      "name": "Templates",
      "relativePath": "写作方法/Templates"
    },
    {
      "name": "attach",
      "relativePath": "写作方法/attach"
    },
    {
      "name": "写作模块",
      "relativePath": "写作方法/写作模块"
    },
    {
      "name": "研究成果",
      "relativePath": "日记/研究成果"
    },
    {
      "name": "事件",
      "relativePath": "working/预制/事件"
    },
    {
      "name": "人物",
      "relativePath": "working/预制/人物"
    },
    {
      "name": "副本",
      "relativePath": "working/预制/副本"
    },
    {
      "name": "历史",
      "relativePath": "working/预制/历史"
    },
    {
      "name": "场景+天气",
      "relativePath": "working/预制/场景+天气"
    },
    {
      "name": "大纲",
      "relativePath": "working/预制/大纲"
    },
    {
      "name": "核心思想",
      "relativePath": "working/预制/核心思想"
    },
    {
      "name": "风物",
      "relativePath": "working/预制/风物"
    },
    {
      "name": "高潮名场面",
      "relativePath": "working/预制/高潮名场面"
    },
    {
      "name": "Markdown-Parser",
      "relativePath": "zob_config/template/Markdown-Parser"
    },
    {
      "name": "script",
      "relativePath": "zob_config/template/script"
    },
    {
      "name": "数据模板",
      "relativePath": "zob_config/template/数据模板"
    },
    {
      "name": "笔记模板",
      "relativePath": "zob_config/template/笔记模板"
    },
    {
      "name": "事件-AT",
      "relativePath": "写作方法/AT-模板/事件-AT"
    },
    {
      "name": "人物-AT",
      "relativePath": "写作方法/AT-模板/人物-AT"
    },
    {
      "name": "历史-AT",
      "relativePath": "写作方法/AT-模板/历史-AT"
    },
    {
      "name": "场景+天气-AT",
      "relativePath": "写作方法/AT-模板/场景+天气-AT"
    },
    {
      "name": "大纲logline-AT",
      "relativePath": "写作方法/AT-模板/大纲logline-AT"
    },
    {
      "name": "标题-AT",
      "relativePath": "写作方法/AT-模板/标题-AT"
    },
    {
      "name": "核心思想-AT",
      "relativePath": "写作方法/AT-模板/核心思想-AT"
    },
    {
      "name": "爽点-AT",
      "relativePath": "写作方法/AT-模板/爽点-AT"
    },
    {
      "name": "风物-At",
      "relativePath": "写作方法/AT-模板/风物-At"
    },
    {
      "name": "logline",
      "relativePath": "写作方法/Templates/logline"
    },
    {
      "name": "其他模板",
      "relativePath": "写作方法/Templates/其他模板"
    },
    {
      "name": "爽点",
      "relativePath": "写作方法/Templates/爽点"
    },
    {
      "name": "事件来源-创造力",
      "relativePath": "写作方法/attach/事件来源-创造力"
    },
    {
      "name": "角色U8",
      "relativePath": "working/预制/人物/角色U8"
    },
    {
      "name": "Taskido",
      "relativePath": "zob_config/template/script/Taskido"
    },
    {
      "name": "tasksCalendar",
      "relativePath": "zob_config/template/script/tasksCalendar"
    },
    {
      "name": "template",
      "relativePath": "zob_config/template/script/template"
    },
    {
      "name": "情感表现",
      "relativePath": "写作方法/AT-模板/人物-AT/情感表现"
    },
    {
      "name": "细节描写",
      "relativePath": "写作方法/AT-模板/人物-AT/细节描写"
    },
    {
      "name": "角色动机",
      "relativePath": "写作方法/AT-模板/人物-AT/角色动机"
    },
    {
      "name": "角色性格",
      "relativePath": "写作方法/AT-模板/人物-AT/角色性格"
    },
    {
      "name": "场景细节",
      "relativePath": "写作方法/AT-模板/场景+天气-AT/场景细节"
    }
  ],
  "nonMdFiles": [
    {
      "name": "cedict_ts.u8",
      "basename": "cedict_ts",
      "relativePath": "cedict_ts.u8"
    },
    {
      "name": "2024.code-profile",
      "basename": "2024",
      "relativePath": "Obsidian/2024.code-profile"
    },
    {
      "name": "dv_getwordcoutView.js",
      "basename": "dv_getwordcoutView",
      "relativePath": "Obsidian/脚本/dv_getwordcoutView.js"
    },
    {
      "name": "中国民俗史4宋辽金元卷 - 未知.txt",
      "basename": "中国民俗史4宋辽金元卷 - 未知",
      "relativePath": "attach/6-整理哲学-APP化一切/中国民俗史4宋辽金元卷 - 未知.txt"
    },
    {
      "name": "1849965142994040ed07e6d808f7fe96_MD5.jpg",
      "basename": "1849965142994040ed07e6d808f7fe96_MD5",
      "relativePath": "attach/Merged - 反向刻意锻炼/1849965142994040ed07e6d808f7fe96_MD5.jpg"
    },
    {
      "name": "bef10acf6598f3bdc36520cad8b2bb12_MD5.png",
      "basename": "bef10acf6598f3bdc36520cad8b2bb12_MD5",
      "relativePath": "attach/Merged - 反向刻意锻炼/bef10acf6598f3bdc36520cad8b2bb12_MD5.png"
    },
    {
      "name": "矢津昌永《世界地理》序（清）吴汝纶-清代散文 - 未知.txt",
      "basename": "矢津昌永《世界地理》序（清）吴汝纶-清代散文 - 未知",
      "relativePath": "working/小世界/矢津昌永《世界地理》序（清）吴汝纶-清代散文 - 未知.txt"
    },
    {
      "name": "002.jpeg",
      "basename": "002",
      "relativePath": "zob_config/banners/002.jpeg"
    },
    {
      "name": "013.jpg",
      "basename": "013",
      "relativePath": "zob_config/banners/013.jpg"
    },
    {
      "name": "014.jpeg",
      "basename": "014",
      "relativePath": "zob_config/banners/014.jpeg"
    },
    {
      "name": "014.png",
      "basename": "014",
      "relativePath": "zob_config/banners/014.png"
    },
    {
      "name": "015.jpeg",
      "basename": "015",
      "relativePath": "zob_config/banners/015.jpeg"
    },
    {
      "name": "2.png",
      "basename": "2",
      "relativePath": "zob_config/banners/2.png"
    },
    {
      "name": "9.png",
      "basename": "9",
      "relativePath": "zob_config/banners/9.png"
    },
    {
      "name": "book-banner.gif",
      "basename": "book-banner",
      "relativePath": "zob_config/banners/book-banner.gif"
    },
    {
      "name": "daily-note-banner.gif",
      "basename": "daily-note-banner",
      "relativePath": "zob_config/banners/daily-note-banner.gif"
    },
    {
      "name": "rainy-day-bird-2.gif",
      "basename": "rainy-day-bird-2",
      "relativePath": "zob_config/banners/rainy-day-bird-2.gif"
    },
    {
      "name": "rainy-day-bird.gif",
      "basename": "rainy-day-bird",
      "relativePath": "zob_config/banners/rainy-day-bird.gif"
    },
    {
      "name": "Extractor.py",
      "basename": "Extractor",
      "relativePath": "zob_config/template/Markdown-Parser/Extractor.py"
    },
    {
      "name": "MarkdownFile.py",
      "basename": "MarkdownFile",
      "relativePath": "zob_config/template/Markdown-Parser/MarkdownFile.py"
    },
    {
      "name": "Parser.py",
      "basename": "Parser",
      "relativePath": "zob_config/template/Markdown-Parser/Parser.py"
    },
    {
      "name": "__init__.py",
      "basename": "__init__",
      "relativePath": "zob_config/template/Markdown-Parser/__init__.py"
    },
    {
      "name": "obsd_extract.py",
      "basename": "obsd_extract",
      "relativePath": "zob_config/template/Markdown-Parser/obsd_extract.py"
    },
    {
      "name": "test_Script.py",
      "basename": "test_Script",
      "relativePath": "zob_config/template/Markdown-Parser/test_Script.py"
    },
    {
      "name": "yamlParser.py",
      "basename": "yamlParser",
      "relativePath": "zob_config/template/Markdown-Parser/yamlParser.py"
    },
    {
      "name": "SwitcLightdark.js",
      "basename": "SwitcLightdark",
      "relativePath": "zob_config/template/script/SwitcLightdark.js"
    },
    {
      "name": "bookfromdouban.js",
      "basename": "bookfromdouban",
      "relativePath": "zob_config/template/script/bookfromdouban.js"
    },
    {
      "name": "642件可写的事 (美国旧金山写作社 著 徐阳 译)_写作 - 未知.txt",
      "basename": "642件可写的事 (美国旧金山写作社 著 徐阳 译)_写作 - 未知",
      "relativePath": "写作方法/attach/事件来源-创造力/642件可写的事 (美国旧金山写作社 著 徐阳 译)_写作 - 未知.txt"
    },
    {
      "name": "view 备份.css",
      "basename": "view 备份",
      "relativePath": "zob_config/template/script/Taskido/view 备份.css"
    },
    {
      "name": "view.css",
      "basename": "view",
      "relativePath": "zob_config/template/script/Taskido/view.css"
    },
    {
      "name": "view.js",
      "basename": "view",
      "relativePath": "zob_config/template/script/Taskido/view.js"
    },
    {
      "name": "view-小字backup.css",
      "basename": "view-小字backup",
      "relativePath": "zob_config/template/script/tasksCalendar/view-小字backup.css"
    },
    {
      "name": "view.css",
      "basename": "view",
      "relativePath": "zob_config/template/script/tasksCalendar/view.css"
    },
    {
      "name": "view.js",
      "basename": "view",
      "relativePath": "zob_config/template/script/tasksCalendar/view.js"
    },
    {
      "name": "getrandomImage.js",
      "basename": "getrandomImage",
      "relativePath": "zob_config/template/script/template/getrandomImage.js"
    },
    {
      "name": "taskprogress.js",
      "basename": "taskprogress",
      "relativePath": "zob_config/template/script/template/taskprogress.js"
    }
  ]
}