{
  "panel": {
    "panels": [
      {
        "id": "control",
        "state": {
          "items": [
            {
              "id": "play",
              "state": {}
            },
            {
              "id": "pin-note",
              "state": {}
            },
            {
              "id": "speed",
              "state": {
                "value": 24
              }
            },
            {
              "id": "font-size",
              "state": {
                "value": 52
              }
            },
            {
              "id": "line-height",
              "state": {
                "value": 1.5
              }
            },
            {
              "id": "letter-spacing",
              "state": {}
            },
            {
              "id": "font-family",
              "state": {}
            },
            {
              "id": "padding",
              "state": {
                "value": [
                  46,
                  "1",
                  28,
                  "2"
                ]
              }
            },
            {
              "id": "flip-x",
              "state": {}
            },
            {
              "id": "flip-y",
              "state": {}
            },
            {
              "id": "text-color",
              "state": {}
            },
            {
              "id": "bg-color",
              "state": {}
            },
            {
              "id": "content",
              "state": {
                "value": "content-plain"
              }
            },
            {
              "id": "opacity",
              "state": {}
            },
            {
              "id": "detach-window",
              "state": {}
            },
            {
              "id": "open-settings",
              "state": {
                "value": 1713023563804
              }
            },
            {
              "id": "fullscreen",
              "state": {}
            }
          ],
          "height": 49
        },
        "defaults": {
          "items": [
            {
              "id": "play",
              "state": {}
            },
            {
              "id": "pin-note",
              "state": {}
            },
            {
              "id": "speed",
              "state": {}
            },
            {
              "id": "font-size",
              "state": {}
            },
            {
              "id": "line-height",
              "state": {}
            },
            {
              "id": "letter-spacing",
              "state": {}
            },
            {
              "id": "font-family",
              "state": {}
            },
            {
              "id": "padding",
              "state": {}
            },
            {
              "id": "flip-x",
              "state": {}
            },
            {
              "id": "flip-y",
              "state": {}
            },
            {
              "id": "text-color",
              "state": {}
            },
            {
              "id": "bg-color",
              "state": {}
            },
            {
              "id": "content",
              "state": {}
            },
            {
              "id": "opacity",
              "state": {}
            },
            {
              "id": "detach-window",
              "state": {}
            },
            {
              "id": "open-settings",
              "state": {}
            },
            {
              "id": "fullscreen",
              "state": {}
            }
          ]
        }
      },
      {
        "id": "control",
        "state": {
          "name": "Control side-panel",
          "location": "left",
          "alignment": "center",
          "width": 250,
          "isOpen": false,
          "items": [
            {
              "id": "play",
              "state": {}
            },
            {
              "id": "pin-note",
              "state": {}
            },
            {
              "id": "speed",
              "state": {
                "value": 24
              }
            },
            {
              "id": "font-size",
              "state": {
                "value": 52
              }
            },
            {
              "id": "line-height",
              "state": {
                "value": 1.5
              }
            },
            {
              "id": "letter-spacing",
              "state": {}
            },
            {
              "id": "font-family",
              "state": {}
            },
            {
              "id": "padding",
              "state": {
                "value": [
                  46,
                  "1",
                  28,
                  "2"
                ]
              }
            },
            {
              "id": "flip-x",
              "state": {}
            },
            {
              "id": "flip-y",
              "state": {}
            },
            {
              "id": "text-color",
              "state": {}
            },
            {
              "id": "bg-color",
              "state": {}
            },
            {
              "id": "content",
              "state": {
                "value": "content-plain"
              }
            },
            {
              "id": "opacity",
              "state": {}
            },
            {
              "id": "detach-window",
              "state": {}
            },
            {
              "id": "open-settings",
              "state": {
                "value": 1713023563804
              }
            },
            {
              "id": "fullscreen",
              "state": {}
            }
          ]
        },
        "defaults": {
          "name": "Control side-panel",
          "location": "left",
          "alignment": "center",
          "width": 250,
          "isOpen": false,
          "items": [
            {
              "id": "play",
              "state": {}
            },
            {
              "id": "pin-note",
              "state": {}
            },
            {
              "id": "speed",
              "state": {}
            },
            {
              "id": "font-size",
              "state": {}
            },
            {
              "id": "line-height",
              "state": {}
            },
            {
              "id": "letter-spacing",
              "state": {}
            },
            {
              "id": "font-family",
              "state": {}
            },
            {
              "id": "padding",
              "state": {}
            },
            {
              "id": "flip-x",
              "state": {}
            },
            {
              "id": "flip-y",
              "state": {}
            },
            {
              "id": "text-color",
              "state": {}
            },
            {
              "id": "bg-color",
              "state": {}
            },
            {
              "id": "content",
              "state": {}
            },
            {
              "id": "opacity",
              "state": {}
            },
            {
              "id": "detach-window",
              "state": {}
            },
            {
              "id": "open-settings",
              "state": {}
            },
            {
              "id": "fullscreen",
              "state": {}
            }
          ]
        }
      },
      {
        "id": "pagemap",
        "state": {
          "items": [],
          "width": 239,
          "isOpen": false
        },
        "defaults": {}
      },
      {
        "id": "pagemap",
        "state": {
          "name": "Page minimap extra",
          "location": "left",
          "width": 80,
          "isOpen": false,
          "items": []
        },
        "defaults": {
          "name": "Page minimap extra",
          "location": "left",
          "width": 80,
          "isOpen": false
        }
      }
    ]
  },
  "control": {
    "plugins": {
      "font-size": {
        "value": 52
      },
      "line-height": {
        "value": 1.5
      },
      "open-settings": {
        "value": 1713023563804
      },
      "padding": {
        "value": [
          46,
          "1",
          28,
          "2"
        ]
      },
      "speed": {
        "value": 24
      },
      "content": {
        "value": "content-plain"
      }
    }
  },
  "wake-lock": {
    "isEnabled": true
  },
  "detach-window": {
    "value": false
  },
  "play": {
    "value": false
  },
  "speed": {
    "value": 24
  },
  "font-size": {
    "value": 52
  },
  "line-height": {
    "value": 1.5
  },
  "letter-spacing": {
    "value": 0
  },
  "padding": {
    "value": [
      46,
      "1",
      28,
      "2"
    ]
  },
  "fullscreen": {
    "value": false
  }
}