{
  "triggerSymbol": "@",
  "limitLinkDirectories": [
    "写作方法"
  ],
  "includeSymbol": false,
  "showAddNewNote": false,
  "addNewNoteTemplateFile": "",
  "addNewNoteDirectory": "",
  "useCompatibilityMode": false,
  "leavePopupOpenForXSpaces": 0,
  "invalidCharacterRegex": "[[]^|#]",
  "invalidCharacterRegexFlags": "i",
  "removeAccents": true
}