{
  "couchDB_URI": "",
  "couchDB_USER": "",
  "couchDB_PASSWORD": "",
  "couchDB_DBNAME": "",
  "liveSync": false,
  "syncOnSave": false,
  "syncOnStart": false,
  "savingDelay": 200,
  "lessInformationInLog": false,
  "gcDelay": 0,
  "versionUpFlash": "",
  "minimumChunkSize": 20,
  "longLineThreshold": 250,
  "showVerboseLog": false,
  "suspendFileWatching": false,
  "trashInsteadDelete": true,
  "periodicReplication": false,
  "periodicReplicationInterval": 60,
  "syncOnFileOpen": false,
  "encrypt": false,
  "passphrase": "",
  "usePathObfuscation": false,
  "doNotDeleteFolder": false,
  "resolveConflictsByNewerFile": false,
  "batchSave": false,
  "deviceAndVaultName": "",
  "usePluginSettings": false,
  "showOwnPlugins": false,
  "showStatusOnEditor": true,
  "showStatusOnStatusbar": true,
  "showOnlyIconsOnEditor": false,
  "usePluginSync": false,
  "autoSweepPlugins": false,
  "autoSweepPluginsPeriodic": false,
  "notifyPluginOrSettingUpdated": false,
  "checkIntegrityOnSave": false,
  "batch_size": 25,
  "batches_limit": 25,
  "useHistory": true,
  "disableRequestURI": true,
  "skipOlderFilesOnSync": true,
  "checkConflictOnlyOnOpen": false,
  "showMergeDialogOnlyOnActive": false,
  "syncInternalFiles": false,
  "syncInternalFilesBeforeReplication": false,
  "syncInternalFilesIgnorePatterns": "\\/node_modules\\/, \\/\\.git\\/, \\/obsidian-livesync\\/",
  "syncInternalFilesInterval": 60,
  "additionalSuffixOfDatabaseName": "15be5b6e99584f17",
  "ignoreVersionCheck": false,
  "lastReadUpdates": 0,
  "deleteMetadataOfDeletedFiles": false,
  "syncIgnoreRegEx": "",
  "syncOnlyRegEx": "",
  "customChunkSize": 0,
  "readChunksOnline": true,
  "watchInternalFileChanges": true,
  "automaticallyDeleteMetadataOfDeletedFiles": 0,
  "disableMarkdownAutoMerge": false,
  "writeDocumentsIfConflicted": false,
  "useDynamicIterationCount": false,
  "syncAfterMerge": false,
  "configPassphraseStore": "",
  "encryptedPassphrase": "",
  "encryptedCouchDBConnection": "",
  "permitEmptyPassphrase": false,
  "useIndexedDBAdapter": true,
  "useTimeouts": false,
  "writeLogToTheFile": false,
  "doNotPaceReplication": false,
  "hashCacheMaxCount": 300,
  "hashCacheMaxAmount": 50,
  "concurrencyOfReadChunksOnline": 40,
  "minimumIntervalOfReadChunksOnline": 50,
  "hashAlg": "xxhash64",
  "suspendParseReplicationResult": false,
  "doNotSuspendOnFetching": false,
  "useIgnoreFiles": false,
  "ignoreFiles": ".gitignore",
  "syncOnEditorSave": false,
  "pluginSyncExtendedSetting": {},
  "syncMaxSizeInMB": 50,
  "settingSyncFile": "",
  "writeCredentialsForSettingSync": false,
  "notifyAllSettingSyncFile": false,
  "isConfigured": true,
  "settingVersion": 0
}