{
  "command_timeout": 6,
  "templates_folder": "写作方法/Templates",
  "templates_pairs": [
    [
      "tianqi",
      "curl -H \"Accept-Language: zh-CN\" \"wttr.in/nanjing?format=%c+%F0%9F%8C%A1%t\""
    ],
    [
      "links",
      "<%* \nconst noOfNotes = 5\nconst files = app.vault.getFiles()\n\nfor (let i = 0; i < noOfNotes; i++) {\n  const random = Math.floor(Math.random() * \n                            (files.length - 1))\n  const randomNote = files[random]\n    \n  tR += `- [[ ${randomNote.path} | ${ randomNote.basename } ]]\\n`\n}\n%>"
    ],
    [
      "",
      ""
    ]
  ],
  "trigger_on_file_creation": true,
  "auto_jump_to_cursor": true,
  "enable_system_commands": true,
  "shell_path": "/zob_config/template/Markdown-Parser",
  "user_scripts_folder": "zob_config/template/script/template",
  "enable_folder_templates": true,
  "folder_templates": [],
  "syntax_highlighting": true,
  "syntax_highlighting_mobile": false,
  "enabled_templates_hotkeys": [
    ""
  ],
  "startup_templates": [],
  "enable_ribbon_icon": true
}