{
  "hideStrictPathFilters": true,
  "pinFilters": {
    "active": true,
    "tags": [
      {
        "name": "",
        "active": true,
        "pattern": "",
        "patternType": "STRICT"
      }
    ],
    "paths": [
      {
        "name": "cedict",
        "active": true,
        "type": "FILES",
        "pattern": "cedict_ts.u8",
        "patternType": "WILDCARD"
      },
      {
        "name": "",
        "active": true,
        "type": "FILES",
        "pattern": "cedict_ts.u8",
        "patternType": "STRICT"
      },
      {
        "name": "",
        "active": true,
        "type": "FILES_AND_DIRECTORIES",
        "pattern": "",
        "patternType": "WILDCARD"
      },
      {
        "name": "",
        "active": true,
        "type": "FILES",
        "pattern": "写作方法/Templates/其他模板/笔记-zen.md",
        "patternType": "STRICT"
      },
      {
        "name": "",
        "active": true,
        "type": "FILES",
        "pattern": "写作方法/AT-模板/原子模块设计-写作研究.md",
        "patternType": "STRICT"
      },
      {
        "name": "",
        "active": true,
        "type": "FILES",
        "pattern": "写作方法/1.主题创意：新鲜感+期待感+情绪感.md",
        "patternType": "STRICT"
      },
      {
        "name": "",
        "active": true,
        "type": "FILES",
        "pattern": "写作方法/3.写作效率：习惯+卡文+验收+标题.md",
        "patternType": "STRICT"
      },
      {
        "name": "",
        "active": true,
        "type": "FILES",
        "pattern": "1-执行力-效率、库存、系统.md",
        "patternType": "STRICT"
      },
      {
        "name": "",
        "active": true,
        "type": "FILES",
        "pattern": "2-研究力-研究专题、问题解决.md",
        "patternType": "STRICT"
      },
      {
        "name": "",
        "active": true,
        "type": "FILES",
        "pattern": "3-变现力-观念、性格.md",
        "patternType": "STRICT"
      },
      {
        "name": "",
        "active": true,
        "type": "FILES",
        "pattern": "4-读书-收藏夹.md",
        "patternType": "STRICT"
      },
      {
        "name": "",
        "active": true,
        "type": "FILES",
        "pattern": "5-与自己对话.md",
        "patternType": "STRICT"
      },
      {
        "name": "",
        "active": true,
        "type": "FILES",
        "pattern": "写作方法/2.内容丰富事件+角色+场景.md",
        "patternType": "STRICT"
      },
      {
        "name": "",
        "active": true,
        "type": "FILES",
        "pattern": "写作方法/AT-模板/AT元素创建流程.md",
        "patternType": "STRICT"
      },
      {
        "name": "",
        "active": true,
        "type": "FILES",
        "pattern": "写作方法/4.一键生成小说.md",
        "patternType": "STRICT"
      },
      {
        "name": "",
        "active": true,
        "type": "FILES",
        "pattern": "6-things.md",
        "patternType": "STRICT"
      },
      {
        "name": "",
        "active": true,
        "type": "FILES",
        "pattern": "2-研究力-信息升级.md",
        "patternType": "STRICT"
      },
      {
        "name": "",
        "active": true,
        "type": "FILES",
        "pattern": "4-导读清单.md",
        "patternType": "STRICT"
      },
      {
        "name": "",
        "active": true,
        "type": "FILES",
        "pattern": "3-变现力-观念、性格、聪明.md",
        "patternType": "STRICT"
      },
      {
        "name": "",
        "active": true,
        "type": "FILES",
        "pattern": "6-整理哲学-APP化一切.md",
        "patternType": "STRICT"
      },
      {
        "name": "",
        "active": true,
        "type": "FILES",
        "pattern": "4-导读清单+calibre.md",
        "patternType": "STRICT"
      },
      {
        "name": "",
        "active": true,
        "type": "FILES",
        "pattern": "0-三个核心能力.md",
        "patternType": "STRICT"
      },
      {
        "name": "",
        "active": true,
        "type": "FILES",
        "pattern": "5-爱好兴趣行为学.md",
        "patternType": "STRICT"
      },
      {
        "name": "",
        "active": true,
        "type": "FILES",
        "pattern": "5-博弈论.md",
        "patternType": "STRICT"
      }
    ]
  },
  "hideFilters": {
    "active": true,
    "tags": [
      {
        "name": "",
        "active": true,
        "pattern": "",
        "patternType": "STRICT"
      }
    ],
    "paths": [
      {
        "name": "",
        "active": true,
        "type": "FILES",
        "pattern": "cedict_ts.u8",
        "patternType": "STRICT"
      },
      {
        "name": "",
        "active": true,
        "type": "DIRECTORIES",
        "pattern": "Obsidian",
        "patternType": "STRICT"
      },
      {
        "name": "",
        "active": true,
        "type": "DIRECTORIES",
        "pattern": "zob_config",
        "patternType": "STRICT"
      },
      {
        "name": "",
        "active": true,
        "type": "DIRECTORIES",
        "pattern": "zob_memos",
        "patternType": "STRICT"
      },
      {
        "name": "",
        "active": true,
        "type": "DIRECTORIES",
        "pattern": "attach",
        "patternType": "STRICT"
      },
      {
        "name": "",
        "active": true,
        "type": "DIRECTORIES",
        "pattern": "BMO",
        "patternType": "STRICT"
      }
    ]
  }
}