{
  "palette": {
    "seed": 0,
    "selected": "custom",
    "custom": "e12729-f37324-f8cc1b-72b043-007f4e"
  },
  "mixColors": true,
  "transition": true,
  "accessibility": {
    "highTextContrast": false
  },
  "knownTags": {
    "project": 1,
    "project/open": 1,
    "exclude": 2,
    "code_snippet": 3,
    "工作": 4,
    "puppy": 5,
    "daddy": 6,
    "小狗日记": 7,
    "字母": 8,
    "s": 9,
    "m": 10,
    "brat": 11,
    "风物": 12,
    "伯爵聊江湖": 13,
    "📥️": 14,
    "📥️/🎥️": 1,
    "📥️/🎥️/🟥️": 1,
    "📥️/🐦️": 2,
    "📥️/💭️": 3,
    "📥️/🎧️": 4,
    "👥️": 15,
    "📥️/📜️": 5,
    "📝️": 16,
    "📝️/🌱️": 1,
    "📥️/📚️": 6,
    "📥️/📰️": 7,
    "行为科学": 17,
    "logline": 18,
    "都说了代理商沙雕颠三倒沙雕": 19,
    "都说了代理商沙雕颠三倒沙雕，颠三倒沙雕沙雕": 20,
    "都说了代理商沙雕颠三倒沙雕，颠三倒": 21,
    "都说了代理商沙雕颠三倒沙": 22,
    "Obsidian": 23,
    "Zettelkasten": 24
  },
  "_version": 3
}