{
  "linkReplacements": [],
  "titleSeparator": " • ",
  "showPerformanceNotification": false,
  "removeLinksFromHeadingsInternalWikilinkWithoutTextReplacement": "Destination",
  "deleteUnreferencedLinkTarget": true,
  "removeLinksFromHeadingsInternalWikilinkWithoutTextAction": "Delete",
  "onConvertToMdlinkAppendMdExtension": true,
  "autoselectWordOnCreateLink": true,
  "skipFrontmatterInNoteWideCommands": true,
  "ffReplaceLink": false,
  "ffExtractSection": false,
  "ffWrapNoteInFolder": false,
  "ffConvertLinksInFolder": false,
  "ffObsidianUrlSupport": true,
  "ffHighlightBrokenLinks": false,
  "ffSetLinkDestinationFromClipbard": false,
  "ffSkipFrontmatterInNoteWideCommands": true,
  "ffCopyLinkToObject": true,
  "contexMenu": {
    "editLinkText": true,
    "setLinkText": true,
    "setLinkTextFromClipboard": true,
    "editLinkDestination": true,
    "setLinkDestinationFromClipboard": true,
    "copyLinkDestination": true,
    "unlink": true,
    "convertToWikilink": true,
    "convertToAutolink": true,
    "convertToMakrdownLink": true,
    "convertToHtmlLink": true,
    "replaceLink": true,
    "embedUnembedLink": true,
    "deleteLink": true,
    "createLink": true,
    "createLinkFromClipboard": true,
    "convertAllLinksToMdLinks": true,
    "convertWikilinkToMdLinks": true,
    "convertUrlsToMdlinks": true,
    "convertAutolinksToMdlinks": true,
    "convertHtmllinksToMdlinks": true,
    "extractSection": false,
    "wrapNoteInFolder": false,
    "copyLinkToClipboard": true,
    "copyLinkToHeadingToClipboard": true,
    "copyLinkToBlockToClipboard": false,
    "cutLinkToClipboard": true
  }
}